#include <P18F458.h>
void main(void)
  { 
    unsigned char mynum[]= "0123456789";	
                                 	
    unsigned char z;
    TRISB = 0;					
    for(z=0;z<10;z++)
      PORTB = mynum[z];
  }
