#include <P18F458.h>
#pragma romdata mydata = 0x200  
    near rom const char mydata[]= "HELLO";   
void main(void)
  {   
    unsigned char z;
    TRISB = 0;			  
    for(z=0;z<5;z++)
      PORTB = mydata[z];
  }
