COUNTREG EQU 0x20			
CNTVAL EQU 0x0F			
	CLRF	TRISB			
	MOVLW	CNTVAL		
	MOVWF	COUNTREG,1		
	LFSR	1,0x330		
	LFSR	2,0x360		
B3	MOVFF	INDF1, INDF2
	INCF	FSR1L			
	INCF	FSR2L			
	DECF	COUNTREG,F		
	BNZ 	B3			
